วันที่,อุณหภูมิเฉลี่ย (องศาเซลเซียส),ความชื้นสัมพัทธ์ (%),การใช้พลังงาน (kWh)
2021-01-01,27.483570765056164,43.41575031116716,357.6550035540376
2021-01-02,24.308678494144075,87.79335236643668,418.60695512800174
2021-01-03,28.23844269050346,30.72926848138898,330.6515134157931
2021-01-04,32.61514928204013,88.19272960245834,510.58134312642665
2021-01-05,23.829233126383322,32.589594717034565,301.89938176425784
2021-01-06,23.8293152152541,83.46858682188426,416.034924486363
2021-01-07,32.896064077536955,61.66206654517799,433.8357214627646
2021-01-08,28.837173645764544,89.57788776715802,457.3555902865076
2021-01-09,22.65262807032524,34.42779388412393,300.5485615579815
2021-01-10,27.712800217929825,63.231257064079244,395.59941059920413
2021-01-11,22.682911535937688,88.15815213714595,401.5000630531718
2021-01-12,22.671351232148716,61.38587065020893,349.49224479747676
2021-01-13,26.20981135783017,67.76391828811575,399.2085099640669
2021-01-14,15.43359877671101,71.74492133907702,291.0501683179271
2021-01-15,16.375410837434835,57.27246388606639,279.79190178120587
2021-01-16,22.188562353795135,67.6534848050438,349.36715609569416
2021-01-17,19.93584439832788,65.05885871538601,336.21896610151856
2021-01-18,26.571236662976368,84.06948062945935,432.7028876938521
2021-01-19,20.459879622393945,32.72678282048747,271.60272810086957
2021-01-20,17.938481493323543,46.85779137553382,298.7996660812064
2021-01-21,32.32824384460777,87.02468904459352,486.26077198926447
2021-01-22,23.871118497567323,83.41582703345497,419.4286617329861
2021-01-23,25.33764102343962,57.33940516714277,341.46170699818805
2021-01-24,17.87625906893272,67.2079558680922,292.39473587632216
2021-01-25,22.278086377374088,46.64287097886796,303.66020495460106
2021-01-26,25.55461294854933,41.28726958342568,326.3453849995953
2021-01-27,19.245032112888488,57.82190429639893,310.13114770307124
2021-01-28,26.87849009172836,51.20113368156317,374.08559092209464
2021-01-29,21.996806550405974,65.01936671105233,347.45858624244073
2021-01-30,23.541531251033618,34.66407821789909,303.2446892785098
2021-01-31,21.991466938853016,88.46368845996999,402.1196939177867
2021-02-01,34.26139092254469,89.17264466877617,529.2914373392067
2021-02-02,24.93251387631033,71.88970284118471,379.8391542843752
2021-02-03,19.711445355220498,62.165781980647225,317.8271078011694
2021-02-04,29.112724560515943,48.571656977179664,387.57466133038866
2021-02-05,18.895781750144888,78.82770118241692,351.46637983188725
2021-02-06,26.044317975023777,71.08387035323275,394.8842490339686
2021-02-07,15.201649380601122,39.75701636069348,230.6383147714615
2021-02-08,18.359069755507846,84.65563106963054,353.2017960396111
2021-02-09,25.984306179345616,79.35223457539014,411.50282990964115
2021-02-10,28.692332899977053,86.98799479751544,453.6161670953226
2021-02-11,25.85684140594985,73.5431705033016,406.6422128424751
2021-02-12,24.421758588058797,66.80491175614739,376.52395793301065
2021-02-13,23.494481522053555,55.09458217743713,350.1387547696161
2021-02-14,17.607390048162863,85.9637090012408,337.46873127766025
2021-02-15,21.400778958026457,81.9638333700245,374.4286410415257
2021-02-16,22.696806145201062,32.713120206371364,290.10214134921745
2021-02-17,30.285611131094576,31.58201846983512,374.15878733185207
2021-02-18,26.71809144784231,52.58780201268297,362.95238075811
2021-02-19,16.18479922318633,78.63319984690997,321.4609119772341
2021-02-20,26.620419846973974,89.23656775889667,447.20488906291195
2021-02-21,23.074588597918417,39.02501346621169,325.2598853384073
2021-02-22,21.615389998470206,65.6478429211281,337.3786921838956
2021-02-23,28.05838144420434,52.85345139786129,379.71838405659105
2021-02-24,30.154997612479754,88.19486386887618,468.5661470403167
2021-02-25,29.656400595580994,80.52713538814251,440.92048501141096
2021-02-26,20.803912383886807,80.29972228266827,386.28543774683186
2021-02-27,23.453938120743928,58.12158958769822,338.3675480733445
2021-02-28,26.65631715701782,54.88917014025991,368.1784577601495
2021-03-01,29.877725635611796,46.40442431584238,404.74377007062435
2021-03-02,22.60412881077355,33.382529799055625,275.2752772364646
2021-03-03,24.071705116680914,81.8833425753032,412.04725201028936
2021-03-04,19.46832512996986,78.77406054780465,338.10112894189007
2021-03-05,19.018966879596647,89.98306039716783,382.622736955598
2021-03-06,29.062629111970992,89.79821022443431,448.5239346981699
2021-03-07,31.781200142854114,63.32590233615765,426.92911193834976
2021-03-08,24.63994939209833,76.13924491083063,393.22876139305544
2021-03-09,30.01766448946012,86.68594379294568,483.2667593822199
2021-03-10,26.80818012523817,80.97884344064468,429.7299056273053
2021-03-11,21.77440122697438,44.84088610459186,304.06863375006185
2021-03-12,26.80697802754207,57.03264811860561,395.59551858727906
2021-03-13,32.690182832329846,37.7495649090897,423.9533535258086
2021-03-14,24.820869804450243,87.24306163552333,429.41739415968686
2021-03-15,32.82321827907003,66.3704780670528,454.7445938937931
2021-03-16,11.901274479551278,43.71856833020776,202.26845111583555
2021-03-17,29.10951252187612,70.30204106435141,418.8147335498908
2021-03-18,25.435235341190857,67.08769442747375,389.5359164893966
2021-03-19,23.504963247670663,51.48976308197043,321.73322878088425
2021-03-20,25.45880388267751,36.81345553197774,333.73358644382563
2021-03-21,15.062155426995536,70.29439173556798,311.26607819749086
2021-03-22,23.90164056081244,61.2184620542276,368.62924551451005
2021-03-23,26.78556285755873,76.33910350413836,415.84235838191466
2021-03-24,32.38947022370758,61.209810066719605,451.58369649683294
2021-03-25,22.40864890863176,81.1308900191124,402.55360357620117
2021-03-26,20.95753198553406,63.114410326469134,351.50908686089025
2021-03-27,22.491214782077318,63.656278292123176,342.18712548938583
2021-03-28,29.57701058851037,82.5992161595007,466.07150209992835
2021-03-29,26.643755548298422,54.208971972743825,373.2744845277699
2021-03-30,22.351198981164806,38.04091370703844,307.6597497048618
2021-03-31,27.56633716556678,31.726960578800337,342.95343235143616
2021-04-01,25.4853877467402,75.30823534041714,381.77313405339186
2021-04-02,29.843224952664446,67.21857308120788,429.3892648260918
2021-04-03,21.489734530613237,72.24478608595342,361.3725011070021
2021-04-04,23.361689267011158,42.777849690534644,304.8289423795924
2021-04-05,23.039459234339212,38.18228853520618,312.5693895124643
2021-04-06,17.682425259339407,30.872679940072917,223.3294600562696
2021-04-07,26.48060138532288,51.03525352839582,358.89213043584994
2021-04-08,26.305276360899448,65.39506121127798,407.25600522855177
2021-04-09,25.025567283212304,53.53464270598394,348.48718035544823
2021-04-10,23.827064333124266,56.248495321423746,356.5073035661069
2021-04-11,17.92314628974793,84.2495216696249,330.1947690576422
2021-04-12,22.896773386173205,50.89532802139802,351.5715364721795
2021-04-13,23.286427417366152,60.83936934958865,351.4974764879663
2021-04-14,20.988613653891903,77.01918076446859,364.8777061373334
2021-04-15,24.193571441669953,53.79256693927621,351.3112162607416
2021-04-16,27.020254284072692,67.32520201367241,410.9286155113853
2021-04-17,34.43092950605265,81.74182252480472,492.60114028027414
2021-04-18,25.872889064159196,86.97123741945853,432.6180007721424
2021-04-19,26.28775195361382,38.82440885574228,333.9386489898092
2021-04-20,24.627770421169163,85.59525750968967,400.57264697028825
2021-04-21,15.406143923504793,59.52697758477229,282.9866164058796
2021-04-22,24.867430622753915,45.4946632979375,336.14190298741823
2021-04-23,25.301151049705133,57.54814537429568,370.5330055017679
2021-04-24,37.316210562426434,88.80195451712862,552.5644688458021
2021-04-25,24.038195176094387,59.55708563957218,356.14760031632716
2021-04-26,26.507736711668063,49.72509661725049,384.27783388748946
2021-04-27,24.826441151473784,68.00405125900355,383.79986750645486
2021-04-28,19.15660981190234,44.408737126691584,264.8040491956399
2021-04-29,30.714114072575104,34.551799686519836,372.2409264969575
2021-04-30,28.759665163433873,37.73278331463895,368.0595944647377
2021-05-01,28.955159735215233,37.682750337466345,370.2430491207905
2021-05-02,20.453062726026303,39.11416161073766,271.8811411291207
2021-05-03,32.013971554680495,38.32963035896461,406.09380133818183
2021-05-04,17.990744686038596,68.45248468819287,299.1837469480613
2021-05-05,27.934285469001352,40.91280506394869,372.60981684407506
2021-05-06,35.952278129049894,50.740036999431794,447.80937639798844
2021-05-07,20.04731837434656,83.80730459436072,365.82534074210025
2021-05-08,22.16851135198614,58.437698415772346,349.2061971316731
2021-05-09,25.498256825438204,70.05346431126162,396.28555356577596
2021-05-10,22.482621729419005,40.33919227209779,313.6715870155213
2021-05-11,17.246682844669337,41.53734112852025,261.7281303008332
2021-05-12,25.342814874030136,32.45211697598873,331.1950688263248
2021-05-13,19.688481431369475,40.136103784329876,287.7791203914916
2021-05-14,27.36796215317591,46.71542034191752,362.5730191302297
2021-05-15,20.402878828830985,40.62062905660481,291.59946273945417
2021-05-16,32.7496720250877,35.322152025423335,382.87550568474614
2021-05-17,21.083733538318814,37.238152266036046,284.7345908418824
2021-05-18,23.38969241897162,57.64672608196355,357.37522370002864
2021-05-19,29.067586086848348,42.38002310434755,376.77438361963857
2021-05-20,18.845678417830225,51.85619166288453,296.6355648192422
2021-05-21,26.137299673020646,60.20503625129142,379.65034547313144
2021-05-22,31.53571377141214,71.42368971776192,469.49521152499665
2021-05-23,16.96258382719386,32.358728390465934,233.53913731578055
2021-05-24,25.92316929266152,77.96462393454256,410.50643897165975
2021-05-25,26.299413971242117,67.67402336945446,407.20736057702067
2021-05-26,28.90911435888655,34.905541916932314,344.8506281990856
2021-05-27,18.81524644560959,82.41471744640663,357.99223278408255
2021-05-28,18.397716934578618,85.25234403190879,344.0570086673324
2021-05-29,27.60970782808449,33.66467759129183,356.20570175581014
2021-05-30,26.48492336616593,46.61265888883222,355.4642789068558
2021-05-31,26.252464251729382,78.37207678758368,420.6186433006581
2021-06-01,26.732241047484877,74.89558142301951,421.239277287329
2021-06-02,21.599876392107547,41.07126116138264,278.8444402806992
2021-06-03,26.161268485805017,42.56095940020262,340.22875524288685
2021-06-04,26.465362366493405,52.22832616748292,379.5457350927654
2021-06-05,21.42824290986816,59.07137911146128,341.1028375633131
2021-06-06,34.328872555723784,67.09528629181776,480.3096201948255
2021-06-07,27.36916460455894,52.134818374186345,364.46664707970683
2021-06-08,19.043482513986756,57.75208296798887,311.7940256844311
2021-06-09,28.28276804316915,74.8482562880254,439.6581889097967
2021-06-10,20.126591648863393,32.20099217343587,266.13807296674315
2021-06-11,28.93542301871226,45.146216660641244,391.87837301431966
2021-06-12,30.79297789503702,72.80097515307315,446.69741135521525
2021-06-13,20.89658840824145,83.71241026123195,371.29212882987866
2021-06-14,29.81688064622161,60.70064652693996,394.7239837252378
2021-06-15,27.06390463468249,61.92680911591894,403.6909396801394
2021-06-16,29.11030079997245,36.430320680386565,367.1022689951989
2021-06-17,34.48396491326974,56.84474200940728,441.7109299001796
2021-06-18,23.773059419985646,61.95703598730139,344.05867617451776
2021-06-19,21.23131917821255,44.54823021808378,292.6833459445829
2021-06-20,20.552427851872384,46.15459385696286,305.7700456524531
2021-06-21,20.920948575172808,52.63704978627736,311.47998044339647
2021-06-22,24.614491452929478,31.204271866663582,300.50558909601875
2021-06-23,26.70575987408322,49.3247499349907,355.64593967997865
2021-06-24,26.383453996650097,42.68688041979268,338.6991812278045
2021-06-25,29.13591624518012,49.64984113067488,371.3220617020753
2021-06-26,25.065009459389536,37.18572790915508,312.94759209574175
2021-06-27,32.26767038578659,83.4316368443937,478.8341967498816
2021-06-28,23.67671583381022,65.61554721324292,374.82448512915954
2021-06-29,38.600845832948096,70.74613914866939,525.8435060953536
2021-06-30,28.12833673882503,77.3502743164403,427.72806759095636
2021-07-01,20.714212217918586,59.90653193574344,350.0524136047346
2021-07-02,19.64553750969444,35.21521728524542,260.2468405319686
2021-07-03,27.412362076215928,62.22639250911287,410.24743492422135
2021-07-04,23.882686073370746,65.21046708125274,385.4588804740901
2021-07-05,28.57000247046046,74.7263684510598,419.4531582301508
2021-07-06,27.366188122867726,55.89957277378076,386.2006564169745
2021-07-07,24.635855436715637,37.65481816773382,316.4928541935418
2021-07-08,20.766031409657977,47.026554347923465,295.7241788268334
2021-07-09,17.425763876570677,51.78493778391811,283.3812825016121
2021-07-10,22.767425239664895,68.75503447989607,358.95561639220824
2021-07-11,29.28199397161736,64.24669828013472,416.35364581317833
2021-07-12,26.07046872065102,51.36580355387078,361.75514535799886
2021-07-13,18.771306106440058,89.19091492757877,362.36089823579243
2021-07-14,25.86590462925591,66.34648916141323,379.61632254526427
2021-07-15,26.926586898644185,44.233607504159664,365.6921490432359
2021-07-16,20.580712818994336,36.106948357224226,288.50633428946776
2021-07-17,25.76862552972764,39.171548351059926,339.4655378947484
2021-07-18,25.29104359223,44.757463703070485,338.6598368182183
2021-07-19,19.285148510846884,39.64088239557334,265.0811425363177
2021-07-20,26.788936801741418,41.19402144307834,343.2412102743064
2021-07-21,27.80392263184117,47.10571012163082,395.8244102120004
2021-07-22,30.415256215876383,40.40241571768529,394.3357766098008
2021-07-23,30.269010260174515,83.8059254775855,461.9008527710828
2021-07-24,18.111653160214544,34.81402473969853,252.3915593559139
2021-07-25,20.310874800424386,61.470683374215284,322.4247645016808
2021-07-26,27.5751763360433,54.62380961937969,390.83738636075526
2021-07-27,27.568929754561044,88.94271701451638,459.0097226025366
2021-07-28,27.575238431530238,36.72233413008314,360.0331491145234
2021-07-29,44.26365745327361,53.871335942744494,541.8736818316031
2021-07-30,27.854452553465833,88.16822599652212,455.9283305140839
2021-07-31,30.677828200902994,81.93042755363882,453.15366726673227
2021-08-01,29.770008817466014,79.02432425695679,443.1753336842853
2021-08-02,28.25695625652899,45.474169622696394,382.3589101762745
2021-08-03,23.42365377679827,40.25325524340395,305.23621034073733
2021-08-04,28.794846102466337,70.11859319546586,419.77655943511655
2021-08-05,21.13587392731214,85.76255934765516,382.8010772229312
2021-08-06,23.815906966299956,63.405773580835785,371.91822713313655
2021-08-07,22.573182260854484,64.29676136819398,343.7170773865918
2021-08-08,25.409370696931614,46.79874561961705,312.88310992094944
2021-08-09,36.573292833367546,76.16957599151621,509.3698478952727
2021-08-10,15.66367403704126,41.2226249134514,251.13827097684376
2021-08-11,28.43130095187257,49.42075418425462,386.5858683974036
2021-08-12,16.936420644051744,55.526186316985005,293.6553271123596
2021-08-13,22.640340671052833,60.456622721067305,335.99849073133595
2021-08-14,30.444752984836832,44.544583944904815,377.1427350615374
2021-08-15,25.321400095477316,36.89020948435221,331.619905449953
2021-08-16,19.61127611035347,66.63720254649795,331.78739357338105
2021-08-17,21.42348145370016,47.31783319441534,311.92602412960485
2021-08-18,28.39798874467338,64.87429328535674,423.058440443953
2021-08-19,21.34816684141432,39.26176291645214,296.2220434861701
2021-08-20,26.082292947909874,58.86840611128905,382.6159176330806
2021-08-21,25.22785919951907,61.95536595309515,383.33939403939246
2021-08-22,21.741998261970913,33.109412209345614,288.6629733602706
2021-08-23,35.719720446626624,50.196256691635234,466.1641771667108
2021-08-24,28.169595111590056,38.064880616338456,367.9109205963633
2021-08-25,14.874287066711965,33.80249822836606,231.6647551362609
2021-08-26,25.93227157384714,89.39761394339672,431.6260303762281
2021-08-27,21.69106767615806,49.34123069848338,320.3987592326548
2021-08-28,29.26216667398112,78.5924667512781,446.1033665563944
2021-08-29,21.037396307836495,45.27843928582583,292.595251777224
2021-08-30,24.426317792665504,70.89016333343577,379.1481013827229
2021-08-31,27.524936394902287,75.61367159338118,431.42626231140054
2021-09-01,29.328775970850607,65.73832443647066,428.9469341293074
2021-09-02,18.998517964721117,58.2945713130095,310.5784425656145
2021-09-03,23.327493820795258,54.71045484883611,340.4387114299314
2021-09-04,22.62527344419522,50.93209599257972,328.1510739388957
2021-09-05,21.73335383713144,85.77174865486955,397.054562639814
2021-09-06,33.82727120140548,79.83716446726375,483.0531103520892
2021-09-07,27.024908554804778,87.90161463999075,446.29873581231516
2021-09-08,18.695580228324772,37.45783340913268,262.77103058278095
2021-09-09,29.58930973527388,73.85204851221866,451.1302370679526
2021-09-10,35.610780985063165,86.30042740926227,515.206180549728
2021-09-11,30.162326302755734,40.87398396993961,398.3225684226107
2021-09-12,17.403150170229935,33.98977604200665,244.14735803059776
2021-09-13,22.578829635668743,74.46723895740354,377.3885797384438
2021-09-14,31.334555745933113,64.46838679079471,438.2685334675983
2021-09-15,21.461652671906094,80.50972660549633,381.0162034780221
2021-09-16,27.219097140731144,38.38634259757737,349.44319710529726
2021-09-17,28.873170267146683,77.71603871159341,456.25359953571837
2021-09-18,20.365347642109583,42.09763920286467,273.433812346189
2021-09-19,24.702373219691,39.81935657194227,328.4179036396996
2021-09-20,8.793663299654636,39.85594787585958,171.73365223203976
2021-09-21,19.878061793328552,78.87448321388293,354.66586041742045
2021-09-22,23.7371592430342,69.911833241772,373.14860068081555
2021-09-23,18.761084090175753,61.38392548614716,306.7491190843648
2021-09-24,33.16205651965818,51.529829047410146,436.42661598508033
2021-09-25,17.849293110196836,82.6320324487865,325.6574069897343
2021-09-26,22.799777566515083,53.546706445358126,344.74133816649936
2021-09-27,25.653702886430455,78.99596636829463,409.7276429239353
2021-09-28,32.20636644533058,56.3480945142131,436.03788045539983
2021-09-29,17.8206892441028,52.61666576549445,287.11124663989756
2021-09-30,30.815818760774796,57.76078714017639,418.4217080149712
2021-10-01,25.051165305097935,48.08267244984852,345.3666138806865
2021-10-02,20.092456744760245,74.85656281057507,330.2852906624976
2021-10-03,27.310517371316354,60.16322340554875,400.75285659759174
2021-10-04,25.99529847786735,43.93276170880904,358.6191981995132
2021-10-05,21.998915614206027,83.97447439647411,370.92816941562097
2021-10-06,25.349010424950094,53.033473282392684,355.4921220473237
2021-10-07,23.0734320156912,62.613171666839314,343.6619697081825
2021-10-08,25.56758672625624,84.38832665787282,422.67511736343397
2021-10-09,28.310653372605234,67.45427975483952,424.501456582941
2021-10-10,32.93008408072676,37.013882442501846,413.20169468483755
2021-10-11,18.810922505865754,86.3899274168085,372.1076117865431
2021-10-12,35.665166873281336,67.66248318428507,505.08207334830564
2021-10-13,15.239561002387491,50.09433687942517,250.3601559981696
2021-10-14,24.241074524822082,38.35632435980324,307.6538076804929
2021-10-15,27.941586032422883,77.64151135621776,433.5529800335847
2021-10-16,26.404959338675162,67.20436535571082,404.790999121209
2021-10-17,21.88650240089703,62.007665518579294,330.60775723692035
2021-10-18,23.959388748213623,83.63355498305745,423.4623669827336
2021-10-19,22.534995326705836,77.31583267347185,388.9605040016055
2021-10-20,22.053176215278942,39.100492783965066,296.66707603640623
2021-10-21,29.248010485105123,48.70332406773289,382.7780336824046
2021-10-22,26.785077429825236,44.90934838886794,350.9782602648618
2021-10-23,21.535452023696728,74.63677755436062,365.3701374836901
2021-10-24,29.497999377166252,32.011946084146764,356.7098599126525
2021-10-25,26.536497604383047,64.193381092279,403.25676578121477
2021-10-26,29.0643105941948,75.74752114444144,438.7083899478046
2021-10-27,28.14814420961806,82.60593820570497,451.7483366137055
2021-10-28,20.855024945389637,50.52490492295445,309.31081045805655
2021-10-29,22.199094799015153,79.27543828032077,383.2385181247638
2021-10-30,28.736468025616308,36.63790421731243,358.3399243348241
2021-10-31,28.051851327167324,80.7871375040711,449.1699436923116
2021-11-01,24.89549203017926,37.649319739918944,331.47896058453125
2021-11-02,25.58663691654391,53.837237433622036,368.1401342909046
2021-11-03,31.388324478942124,77.83772194677321,475.6338319544628
2021-11-04,22.04214305582085,38.99504564092643,288.96783406463084
2021-11-05,27.735486905850188,43.75508371395849,368.0974941155087
2021-11-06,23.98903673783053,73.33515410358397,399.05269326034863
2021-11-07,23.9115939838639,73.20219219276447,390.4343698943629
2021-11-08,30.49388425993595,68.46885797311784,431.56938351757987
2021-11-09,29.12708174494015,71.636906668026,434.04696568896264
2021-11-10,29.067548180003193,62.56346660085577,419.5521943851406
2021-11-11,31.527394035771646,45.10794353441717,397.9158322575677
2021-11-12,25.105019208163796,50.741759610235164,338.9509993348747
2021-11-13,28.40976485647482,40.89586300808554,362.728395896554
2021-11-14,23.44866621703272,84.5070336800177,396.0924054506856
2021-11-15,26.62083176244221,65.00350768596724,396.07244268245694
2021-11-16,24.349284728161578,54.05108500581839,335.68097081828967
2021-11-17,25.48497982496359,57.720348218647956,375.93750531229335
2021-11-18,27.97578512718457,86.83700037670891,447.08580167233
2021-11-19,20.908896583832636,39.20108418696481,297.44865657906956
2021-11-20,35.4619363784273,65.17378992100782,482.19795522832493
2021-11-21,19.96991309250149,60.35332073306796,320.1518819273059
2021-11-22,18.92905693606134,66.68725412607887,320.934728825802
2021-11-23,30.790554367500338,31.08661102925043,363.1971688325015
2021-11-24,28.95831346981468,82.3274345366491,478.9607983941716
2021-11-25,28.120599085260775,85.92709694901674,448.10152297056834
2021-11-26,28.1417275463214,63.907991015352536,419.46847271857564
2021-11-27,24.938766135765427,71.79904943261354,382.04947076224744
2021-11-28,20.51372814257084,85.34996287063774,379.5585210779155
2021-11-29,25.37902279096863,72.43431805880391,403.4475856666125
2021-11-30,21.61419144243944,39.15234257485568,294.2048298031245
2021-12-01,29.875598667088756,64.57730161000879,422.2005426945094
2021-12-02,24.264713092489306,66.40290278297135,372.81971746469617
2021-12-03,20.872514016037442,55.44784027814316,315.5879256969296
2021-12-04,23.393070791735035,74.18665413748337,406.32427901067166
2021-12-05,27.06465727137812,86.06202088614089,442.5445835916148
2021-12-06,22.181377235980126,85.53411077440657,398.1308816952539
2021-12-07,20.888898022167844,57.050362284247925,340.80595569442795
2021-12-08,26.218436057459563,36.79428275044532,327.0097393957445
2021-12-09,26.224832855543614,89.09047193774008,440.80587476259564
2021-12-10,22.46528412314435,80.33388518675605,382.6287502881417
2021-12-11,22.644808471908387,37.47976087219601,300.54622200864225
2021-12-12,26.16024968678818,85.25051295704233,430.3134031107916
2021-12-13,17.75957829251338,82.1937817237277,334.66457551628696
2021-12-14,17.962681128117225,61.13028342756432,303.8414809862672
2021-12-15,21.40777889373782,65.47652614469575,334.4045134526087
2021-12-16,23.932764241440765,53.94016223220781,357.0967942519135
2021-12-17,26.554537827990025,33.28569832932188,338.3498730050901
2021-12-18,32.37678108474776,50.11183449875406,419.05685168134556
2021-12-19,29.288298116010097,78.17120691588069,444.77556177812374
2021-12-20,24.200307350182864,30.277921380276172,305.3140218858635
2021-12-21,24.904918960486555,50.00995030146865,341.083637051741
2021-12-22,19.987353176810956,53.8901216154566,325.7735762403715
2021-12-23,24.90743432003805,62.24373617627537,377.14107283984896
2021-12-24,23.55670680539931,85.19133698476563,409.8823735373611
2021-12-25,26.613592801690448,50.780759661957674,374.5118981443927
2021-12-26,20.863845282238387,50.81719211377366,304.4782043092305
2021-12-27,27.596732571205862,74.25007488658491,435.35757530307615
2021-12-28,32.66369456501289,57.133076453388426,442.04843221906043
2021-12-29,24.456199257715713,43.47628937639892,341.01602603994326
2021-12-30,27.008558610494706,57.1463709679616,382.398796775187
2021-12-31,28.450719958555563,38.45142122278799,374.5828242984434
